{
  "$schema": "https://schema.management.azure.com/schemas/2019-04-01/deploymentTemplate.json#",
  "contentVersion": "1.0.0.0",
  "parameters": {},
  "variables": {
    "keyVaultName": "[concat(resourceGroup().name,'-kv')]"
  },
  "resources": [
    {
      "apiVersion": "2021-04-01-preview",
      "name": "[variables('keyVaultName')]",
      "type": "Microsoft.KeyVault/vaults",
      "location": "[resourceGroup().location]",
      "tags": "[resourceGroup().tags]",
      "properties": {
        "sku": {
          "family": "A",
          "name": "standard"
        },
        "tenantId": "54176584-b749-4c38-b5d6-4fd488c6052b",
        "accessPolicies": [
          {
            "tenantId": "54176584-b749-4c38-b5d6-4fd488c6052b",
            "objectId": "c884875f-652f-4365-902f-759e0d5a6139",
            "permissions": {
              "keys": [
                "Get",
                "List",
                "Update",
                "Create",
                "Import",
                "Delete",
                "Recover",
                "Backup",
                "Restore"
              ],
              "secrets": [
                "Get",
                "List",
                "Set",
                "Delete",
                "Recover",
                "Backup",
                "Restore"
              ],
              "certificates": [
                "Get",
                "List",
                "Update",
                "Create",
                "Import",
                "Delete",
                "Recover",
                "Backup",
                "Restore",
                "ManageContacts",
                "ManageIssuers",
                "GetIssuers",
                "ListIssuers",
                "SetIssuers",
                "DeleteIssuers"
              ]
            }
          },
          {
            "tenantId": "54176584-b749-4c38-b5d6-4fd488c6052b",
            "objectId": "e305b498-44d6-4206-831e-33ae0db5e45e",
            "permissions": {
              "keys": [
                "Get",
                "List",
                "Update",
                "Create",
                "Import",
                "Delete",
                "Recover",
                "Backup",
                "Restore"
              ],
              "secrets": [
                "Get",
                "List",
                "Set",
                "Delete",
                "Recover",
                "Backup",
                "Restore"
              ],
              "certificates": []
            }
          },
          {
            "tenantId": "54176584-b749-4c38-b5d6-4fd488c6052b",
            "objectId": "bf4a3ad7-cc0c-494e-b8f6-f503940ea330",
            "permissions": {
              "keys": [
                "Get",
                "List",
                "Update",
                "Create",
                "Import",
                "Delete",
                "Recover",
                "Backup",
                "Restore"
              ],
              "secrets": [
                "Get",
                "List",
                "Set",
                "Delete",
                "Recover",
                "Backup",
                "Restore"
              ],
              "certificates": []
            }
          },
          {
            "tenantId": "54176584-b749-4c38-b5d6-4fd488c6052b",
            "objectId": "769f62cd-ba3b-419b-b23c-eb27a1d9d50a",
            "permissions": {
              "keys": [
                "Get",
                "Create",
                "Delete",
                "List",
                "Update",
                "Import",
                "Backup",
                "Restore",
                "Recover"
              ],
              "secrets": [
                "Get",
                "List",
                "Set",
                "Delete",
                "Backup",
                "Restore",
                "Recover"
              ],
              "certificates": [
                "Get",
                "Delete",
                "List",
                "Create",
                "Import",
                "Update",
                "DeleteIssuers",
                "GetIssuers",
                "ListIssuers",
                "ManageContacts",
                "ManageIssuers",
                "SetIssuers",
                "Recover",
                "Backup",
                "Restore"
              ],
              "storage": [
                "delete",
                "deletesas",
                "get",
                "getsas",
                "list",
                "listsas",
                "regeneratekey",
                "set",
                "setsas",
                "update",
                "recover",
                "backup",
                "restore"
              ]
            }
          }
        ],
        "enabledForDeployment": true,
        "enabledForDiskEncryption": true,
        "enabledForTemplateDeployment": true,
        "enableSoftDelete": false,
        "enableRbacAuthorization": false
      }
    }
  ]
}
